// Jest Snapshot v1, https://goo.gl/fbAQLP

exports[`Validation snapshot 1`] = `
<div class="jngr-validation">
  <div class="jngr-validation__mark"></div>
  <transition-stub name="fade" appear="true">
    <!---->
  </transition-stub>
  <note-stub></note-stub>
</div>
`;
